{
	"ImportPath": "github.com/localistico/services-api",
	"GoVersion": "go1.4.2",
	"Packages": [
		"./..."
	],
	"Deps": [
		{
			"ImportPath": "github.com/PuerkitoBio/goquery",
			"Comment": "v0.3.2-78-g60ec77b",
			"Rev": "60ec77b0032de8548a0d67f76154458850264a99"
		},
		{
			"ImportPath": "github.com/andybalholm/cascadia",
			"Rev": "54abbbf07a45a3ef346ebe903e0715d9a3c19352"
		},
		{
			"ImportPath": "github.com/astaxie/beego/validation",
			"Comment": "v0.9.0-229-g39b2e07",
			"Rev": "39b2e07dc8fa1fa556a61de060b60398b20a80cb"
		},
		{
			"ImportPath": "github.com/bbirec/goauth2/oauth",
			"Rev": "61b079804dca5b32104921499e11f3dd1bbd2e04"
		},
		{
			"ImportPath": "github.com/beefsack/go-rate",
			"Rev": "de575b104f4218f4aebdc95ba56f61f38d0dad86"
		},
		{
			"ImportPath": "github.com/erikstmartin/go-testdb",
			"Rev": "ccffba4c02ddc9e05e4cff4a677d6dcf4db7ff9d"
		},
		{
			"ImportPath": "github.com/ernesto-jimenez/httplogger",
			"Rev": "3e168ad3c4b1895e137faeb4900f80604a8deebd"
		},
		{
			"ImportPath": "github.com/ernesto-jimenez/scraperboard",
			"Rev": "5e533026d743642332b40904269f9457771a794d"
		},
		{
			"ImportPath": "github.com/fzzy/radix/extra/pool",
			"Comment": "v0.5.6",
			"Rev": "031cc11e9800a2626ee2ae629655a922b630a07d"
		},
		{
			"ImportPath": "github.com/fzzy/radix/redis",
			"Comment": "v0.5.6",
			"Rev": "031cc11e9800a2626ee2ae629655a922b630a07d"
		},
		{
			"ImportPath": "github.com/garyburd/go-oauth/oauth",
			"Rev": "12ce6efc373e0a0fb9f6c93209a768dc5b797ba8"
		},
		{
			"ImportPath": "github.com/gocraft/web",
			"Rev": "91f6740db03bb0a8a1c7231e3464124057501a92"
		},
		{
			"ImportPath": "github.com/jinzhu/copier",
			"Rev": "0f5b379f2f7bd17b5e0e06904f6ca386996f9f5a"
		},
		{
			"ImportPath": "github.com/kellydunn/golang-geo",
			"Comment": "v0.3.0",
			"Rev": "7601268acce63a2cee2fa4d349fcd317b432e7cd"
		},
		{
			"ImportPath": "github.com/kylelemons/go-gypsy/yaml",
			"Comment": "go.weekly.2011-11-02-17-g0ddb27c",
			"Rev": "0ddb27ce74ade2ca988ec85587d636e10312dfc6"
		},
		{
			"ImportPath": "github.com/lib/pq",
			"Rev": "529edd91735bdd4b3cc61dcb9ed82cd8ddb616c4"
		},
		{
			"ImportPath": "github.com/lonelycode/go-uuid/uuid",
			"Rev": "ed3ca8a15a931b141440a7e98e4f716eec255f7d"
		},
		{
			"ImportPath": "github.com/mitchellh/mapstructure",
			"Rev": "6fb2c832bcac61d01212ab1d172f7a14a8585b07"
		},
		{
			"ImportPath": "github.com/stvp/rollbar",
			"Comment": "v0.3.1-8-g8b39372",
			"Rev": "8b39372e6211ddf06fd182579c397b33c8b8d593"
		},
		{
			"ImportPath": "github.com/ziutek/mymysql/godrv",
			"Comment": "v1.5.3-17-g8df7d6e",
			"Rev": "8df7d6ed719b63bc96d650e86bd95ad81bffb12e"
		},
		{
			"ImportPath": "github.com/ziutek/mymysql/mysql",
			"Comment": "v1.5.3-17-g8df7d6e",
			"Rev": "8df7d6ed719b63bc96d650e86bd95ad81bffb12e"
		},
		{
			"ImportPath": "github.com/ziutek/mymysql/native",
			"Comment": "v1.5.3-17-g8df7d6e",
			"Rev": "8df7d6ed719b63bc96d650e86bd95ad81bffb12e"
		},
		{
			"ImportPath": "golang.org/x/net/context",
			"Rev": "169f42267807fe93f4a4b0150583e410aefafe4e"
		},
		{
			"ImportPath": "golang.org/x/net/html",
			"Rev": "169f42267807fe93f4a4b0150583e410aefafe4e"
		},
		{
			"ImportPath": "google.golang.org/api/googleapi",
			"Rev": "0297be7525f49a3c3f4b5e0a9c92f46fe2319b36"
		},
		{
			"ImportPath": "google.golang.org/api/plus/v1",
			"Rev": "0297be7525f49a3c3f4b5e0a9c92f46fe2319b36"
		},
		{
			"ImportPath": "gopkgs.com/pool.v1",
			"Rev": "c850f092aad1780cbffff25f471c5cc32097932a"
		},
		{
			"ImportPath": "gopkgs.com/unidecode.v1",
			"Rev": "4deae2c05236b41cc39f8144ac87a837ba974d40"
		},
		{
			"ImportPath": "labix.org/v2/mgo",
			"Comment": "275",
			"Rev": "gustavo@niemeyer.net-20140501184651-975yyw9ipld92pji"
		}
	]
}
